Basic Analysis
…
Data for Analysis

cov_analysis <- cov_tidy %>% 
  group_by(province_state, country_region, dates) %>% 
  summarise(cases_cum = sum(cases)) %>% 
  mutate(dates_lag = dates - lubridate::days(1),
         cases_inc = c(0, diff(cases_cum))) %>% 
  arrange(country_region, dates_lag) %>% 
  ungroup()

cov_analysis %>%
  select(-province_state) %>% 
  count(cases_cum, country_region, sort = TRUE)
#> # A tibble: 6,388 x 3
#>    cases_cum country_region            n
#>        <dbl> <fct>                 <int>
#>  1         0 Canada                  741
#>  2         0 United Kingdom          592
#>  3         0 France                  516
#>  4         0 Netherlands             268
#>  5         0 Australia               200
#>  6         0 Denmark                 132
#>  7         0 Sao Tome and Principe    75
#>  8         2 China                    75
#>  9         0 South Sudan              74
#> 10         0 Western Sahara           74
#> # ... with 6,378 more rows
…
